{
    "status": "success",
    "message": "Inventory data list retrieved successfully",
    "data": [
      {
        "_id": "668b72d6b2412ed5984c9b3c",
        "inventoryId": 21019,
        "assetType": 21,
        "assetTypeName": "Desktop",
        "statusCode": 2,
        "statusName": "In-Use",
        "deviceSource": "IIT Kanpur ",
        "serialNumber": "PG01WT4A",
        "vendor": "ACP IT Solutions pvt limited",
        "billOrderNumber": "P/CSE/RD/2019-2020/25/745",
        "billOrderDate": "2019-06-11T00:00:00.000Z",
        "receivedOn": "2020-02-21T00:00:00.000Z",
        "procurementPeriod": "3 to 4 Months",
        "warranty": false,
        "warrantyEndDate": "2022-11-05T00:00:00.000Z",
        "remarks": "",
        "storeItemNumber": "PC/CSE/2019-11-06/4",
        "endOfLife": "2029-11-05T00:00:00.000Z",
        "capEx": 43728,
        "opEx": null,
        "itemName": "Desktop|Lenovo|M920 SFF Tower|",
        "model": "",
        "oem": "Lenovo",
        "processor": "Intel 8th GEN Core i7-9700 Processor Intel Q370 Chipset Motherboard 1TBSATA(7.2k)8GB DDR-4 (2666MHz)",
        "commonPlatformEnumeration": "cpe:2.3:h:lenovo:thinkcentre_m920t:-:*:*:*:*:*:*:*",
        "responsibleForItem": "Ajul Bajpai",
        "supportContact": "",
        "createdAt": "2024-07-08T05:02:14.085Z",
        "updatedAt": "2024-07-24T06:00:37.422Z",
        "__v": 0,
        "adUserName": "",
        "agentInstallationDate": "2024-05-28T00:00:00.000Z",
        "agentVersion": "v4.7.4",
        "assetAllocationRequestDate": "2024-05-26T00:00:00.000Z",
        "assetHandoverDate": "2024-07-23T00:00:00.000Z",
        "assetId": "",
        "assetLocation": "Reception",
        "custodianDepartment": "",
        "custodianEmail": "",
        "custodianId": "W.A",
        "custodianName": "Vijay Kumar",
        "custodianOffice": "Reception ",
        "custodianPhone": "8687491219",
        "custodianRole": "W.A",
        "custodianType": "Guest",
        "ipAddress": "172.29.24.147",
        "ipType": "Dynamic",
        "listOfCertificates": "",
        "macAddress": "00:d8:61:b6:02:91",
        "operatingSystem": "Microsoft Windows 10 Pro 10.0.19045.4412",
        "whiteListedSoftwares": "",
        "core": "",
        "deviceCategory": "",
        "nicCount": null,
        "ram": "",
        "storage": "",
        "storageCapacity": "",
        "newAssetsSaved": []
      },
      {
        "_id": "668b72d6b2412ed5984c9b4e",
        "inventoryId": 21025,
        "assetType": 21,
        "assetTypeName": "Desktop",
        "statusCode": 2,
        "statusName": "In-Use",
        "deviceSource": "IIT Kanpur ",
        "serialNumber": "PG020FTH",
        "vendor": "ACP IT Solutions pvt limited",
        "billOrderNumber": "P/CSE/RD/2019-2020/38/1218",
        "billOrderDate": "2020-02-19T00:00:00.000Z",
        "receivedOn": "2020-03-20T00:00:00.000Z",
        "procurementPeriod": "3 to 4 Months",
        "warranty": false,
        "warrantyEndDate": "2023-01-06T00:00:00.000Z",
        "remarks": "",
        "storeItemNumber": "PC/CSE/2020-02-19/5",
        "endOfLife": "2030-06-01T00:00:00.000Z",
        "capEx": 55960,
        "opEx": null,
        "itemName": "Lenovo ThinkCentre M920t",
        "model": "Think center",
        "oem": "Lenovo",
        "processor": "Intel(R) Core(TM) i7-9700 CPU @ 3.00GHz   3.00 GHz",
        "commonPlatformEnumeration": "cpe:2.3:h:lenovo:thinkcentre:-:*:*:*:*:*:*:*",
        "responsibleForItem": "Ajul Bajpai",
        "supportContact": "",
        "createdAt": "2024-07-08T05:02:14.328Z",
        "updatedAt": "2024-07-24T07:26:31.952Z",
        "__v": 0,
        "adUserName": "",
        "agentInstallationDate": "2024-07-03T00:00:00.000Z",
        "agentVersion": "v4.8.0",
        "assetAllocationRequestDate": "2024-07-02T00:00:00.000Z",
        "assetHandoverDate": "2024-07-23T00:00:00.000Z",
        "assetId": "",
        "assetLocation": "R341- Seat 5",
        "custodianDepartment": "Admin",
        "custodianEmail": "shapur.kanaujia@gmail.com",
        "custodianId": "W.A",
        "custodianName": "Shashank Kanaujia\t",
        "custodianOffice": "Room 341- Research & Media Team-",
        "custodianPhone": "6388827206",
        "custodianRole": "Adhoc Admin Assistant\t",
        "custodianType": "Guest",
        "ipAddress": "172.29.24.87",
        "ipType": "Dynamic",
        "listOfCertificates": "",
        "macAddress": "00:d8:61:b9:65:48",
        "operatingSystem": "Microsoft Windows 10 Pro 10.0.19045.4651",
        "whiteListedSoftwares": "",
        "core": "",
        "deviceCategory": "",
        "nicCount": null,
        "ram": "",
        "storage": "",
        "storageCapacity": "",
        "newAssetsSaved": []
      },
      {
        "_id": "668b72d5b2412ed5984c9b2a",
        "inventoryId": 21013,
        "assetType": 21,
        "assetTypeName": "Desktop",
        "statusCode": 2,
        "statusName": "In-Use",
        "deviceSource": "IIT Kanpur ",
        "serialNumber": "PG01RP4G",
        "vendor": "ACP IT Solutions pvt limited",
        "billOrderNumber": "P/CSE/RD/2019-2020/11/430",
        "billOrderDate": "2019-08-08T00:00:00.000Z",
        "receivedOn": "2019-12-02T00:00:00.000Z",
        "procurementPeriod": "3 to 4 Months",
        "warranty": false,
        "warrantyEndDate": "2022-08-07T00:00:00.000Z",
        "remarks": null,
        "storeItemNumber": "PC/CSE/2019-08-08/3",
        "endOfLife": "2029-08-07T00:00:00.000Z",
        "capEx": 47489,
        "opEx": null,
        "itemName": "Lenovo Thinkcenter",
        "model": "Think center",
        "oem": "Lenovo",
        "processor": null,
        "commonPlatformEnumeration": null,
        "responsibleForItem": "Ajul Bajpai",
        "supportContact": null,
        "createdAt": "2024-07-08T05:02:13.870Z",
        "updatedAt": "2024-07-23T09:14:32.169Z",
        "__v": 0,
        "adUserName": "",
        "agentInstallationDate": null,
        "agentVersion": "",
        "assetAllocationRequestDate": null,
        "assetHandoverDate": "2024-07-23T09:14:32.169Z",
        "assetId": "",
        "assetLocation": "",
        "custodianDepartment": "CSE",
        "custodianEmail": "pandeym@iitk.ac.in",
        "custodianId": "S12347",
        "custodianName": "Mayank Pandey",
        "custodianOffice": "New Techno",
        "custodianPhone": "9757091148",
        "custodianRole": "Phd Student",
        "custodianType": "Student",
        "ipAddress": "",
        "ipType": "Dynamic",
        "listOfCertificates": "",
        "macAddress": "",
        "operatingSystem": "",
        "whiteListedSoftwares": "",
        "newAssetsSaved": []
      },
      {
        "_id": "668b72dbb2412ed5984c9ce0",
        "inventoryId": 21159,
        "assetType": 21,
        "assetTypeName": "Desktop",
        "statusCode": 2,
        "statusName": "In-Use",
        "deviceSource": "C3iHub",
        "serialNumber": "1N13220669",
        "vendor": "Sun Corporation",
        "billOrderNumber": "634/2324",
        "billOrderDate": "2023-03-04T00:00:00.000Z",
        "receivedOn": "2023-05-06T00:00:00.000Z",
        "procurementPeriod": "3 to 4 Months",
        "warranty": true,
        "warrantyEndDate": "2026-04-02T00:00:00.000Z",
        "remarks": null,
        "storeItemNumber": "PC/IHUB/2023-24/168",
        "endOfLife": "2033-04-02T00:00:00.000Z",
        "capEx": 81778,
        "opEx": null,
        "itemName": "HP 600 G9 Mt Desktop",
        "model": "ELITE TOWER 600 G9",
        "oem": "HP",
        "processor": "12TH GEN INTEL(R) CORE (TM) i7-12700 2.10 GHz",
        "commonPlatformEnumeration": "cpe:2.3:h:hp:elite_tower_600_g9:-:*:*:*:*:*:*:*",
        "responsibleForItem": "Shivshankar Mishra ",
        "supportContact": null,
        "createdAt": "2024-07-08T05:02:19.797Z",
        "updatedAt": "2024-07-22T11:30:39.069Z",
        "__v": 0,
        "adUserName": "",
        "agentInstallationDate": "2024-07-03T00:00:00.000Z",
        "agentVersion": "v4.8.0",
        "assetAllocationRequestDate": "2024-07-02T00:00:00.000Z",
        "assetHandoverDate": "2024-07-22T11:30:39.069Z",
        "assetId": "DHEA01187",
        "assetLocation": "R322- Seat11",
        "custodianDepartment": "SOC",
        "custodianEmail": "shrawank@c3ihub.iitk.ac.in",
        "custodianId": "IHUB187",
        "custodianName": "Shrawan Kumar",
        "custodianOffice": "R322- BlockChain",
        "custodianPhone": "6207314486",
        "custodianRole": "Software Engineer",
        "custodianType": "Employee",
        "ipAddress": "172.17.243.73",
        "ipType": "Dynamic",
        "listOfCertificates": "HRMS",
        "macAddress": "e0:73:e7:0a:91:a3",
        "operatingSystem": "Microsoft Windows 11 Pro 10.0.22631.3880",
        "whiteListedSoftwares": "",
        "newAssetsSaved": []
      },
      {
        "_id": "668b72dab2412ed5984c9c6b",
        "inventoryId": 21120,
        "assetType": 21,
        "assetTypeName": "Desktop",
        "statusCode": 2,
        "statusName": "In-Use",
        "deviceSource": "IITK",
        "serialNumber": "1N12050",
        "vendor": "Global Computers",
        "billOrderNumber": "P/CSE/RD/2021-2022/17/390",
        "billOrderDate": "2021-10-22T00:00:00.000Z",
        "receivedOn": "2022-03-07T00:00:00.000Z",
        "procurementPeriod": "3 to 4 Months",
        "warranty": true,
        "warrantyEndDate": "2024-10-21T00:00:00.000Z",
        "remarks": null,
        "storeItemNumber": "Gen_PC/CSE/AC-II/CS/2021-10-22/50",
        "endOfLife": "2031-10-21T00:00:00.000Z",
        "capEx": 65751,
        "opEx": null,
        "itemName": "HP Prodesk 600 G6 MicrotowerPC",
        "model": "Prodesk 600 G6 MicrotowerPC",
        "oem": "HP",
        "processor": "Intel Core i7 -10700 V PRO Processor 10th GEN (2.9 GHZ :4.8 GHZ TURBO:8Cores 16MB Cache)",
        "commonPlatformEnumeration": "cpe:2.3:o:hp:prodesk_600_g6_microtower_pc_firmware:-:*:*:*:*:*:*:*",
        "responsibleForItem": "Ajul Bajpai",
        "supportContact": null,
        "createdAt": "2024-07-08T05:02:18.198Z",
        "updatedAt": "2024-07-22T14:01:10.642Z",
        "__v": 0,
        "adUserName": "",
        "agentInstallationDate": "2024-07-22T00:00:00.000Z",
        "agentVersion": "v4.8.0",
        "assetAllocationRequestDate": "2024-07-22T00:00:00.000Z",
        "assetHandoverDate": "2024-07-22T14:01:10.642Z",
        "assetId": "DHEA01184",
        "assetLocation": "",
        "custodianDepartment": "",
        "custodianEmail": "tejsr@c3ihub.iitk.ac.in",
        "custodianId": "IHUB184",
        "custodianName": "Tej Singh Rathore",
        "custodianOffice": "Room 332",
        "custodianPhone": "7665117401",
        "custodianRole": "Staff Engineer – [Grade-1] – Security Assessment",
        "custodianType": "Employee",
        "ipAddress": "172.29.26.19",
        "ipType": "Dynamic",
        "listOfCertificates": "HRMS,\r\nGateway",
        "macAddress": "6c:02:e0:64:2b:2f",
        "operatingSystem": "Microsoft Windows 10 Pro 10.0.19045.4651",
        "whiteListedSoftwares": "",
        "newAssetsSaved": []
      },
      {
        "_id": "668b72d9b2412ed5984c9c4d",
        "inventoryId": 21110,
        "assetType": 21,
        "assetTypeName": "Desktop",
        "statusCode": 2,
        "statusName": "In-Use",
        "deviceSource": "IITK",
        "serialNumber": "1N120501H9",
        "vendor": "Global Computers",
        "billOrderNumber": "P/CSE/RD/2021-2022/17/390",
        "billOrderDate": "2021-10-22T00:00:00.000Z",
        "receivedOn": "2022-03-07T00:00:00.000Z",
        "procurementPeriod": "3 to 4 Months",
        "warranty": true,
        "warrantyEndDate": "2024-10-21T00:00:00.000Z",
        "remarks": null,
        "storeItemNumber": "Gen_PC/CSE/AC-II/CS/2021-10-22/40",
        "endOfLife": "2031-10-21T00:00:00.000Z",
        "capEx": 65751,
        "opEx": null,
        "itemName": "HP Prodesk 600 G6 MicrotowerPC",
        "model": "Prodesk 600 G6 MicrotowerPC",
        "oem": "HP",
        "processor": "Intel Core i7 -10700 V PRO Processor 10th GEN (2.9 GHZ :4.8 GHZ TURBO:8Cores 16MB Cache)",
        "commonPlatformEnumeration": "cpe:2.3:o:hp:prodesk_600_g6_microtower_pc_firmware:-:*:*:*:*:*:*:*",
        "responsibleForItem": "Ajul Bajpai",
        "supportContact": null,
        "createdAt": "2024-07-08T05:02:17.821Z",
        "updatedAt": "2024-07-24T07:44:32.037Z",
        "__v": 0,
        "adUserName": "",
        "agentInstallationDate": "2024-07-22T00:00:00.000Z",
        "agentVersion": "v4.8.0",
        "assetAllocationRequestDate": "2024-07-19T00:00:00.000Z",
        "assetHandoverDate": "2024-07-24T07:44:32.037Z",
        "assetId": "DHEA01183",
        "assetLocation": "",
        "custodianDepartment": "",
        "custodianEmail": "utkarshs@c3ihub.iitk.ac.in",
        "custodianId": "IHUB183",
        "custodianName": "Utkarsh Singh",
        "custodianOffice": "",
        "custodianPhone": "9559276569",
        "custodianRole": "Assistant  Manager",
        "custodianType": "Employee",
        "ipAddress": "172.29.26.55",
        "ipType": "Dynamic",
        "listOfCertificates": "HRMS",
        "macAddress": "6c:02:e0:64:28:58",
        "operatingSystem": "Microsoft Windows 10 Pro 10.0.19045.4651",
        "whiteListedSoftwares": "",
        "newAssetsSaved": []
      },
      {
        "_id": "668b72dbb2412ed5984c9ce3",
        "inventoryId": 21160,
        "assetType": 21,
        "assetTypeName": "Desktop",
        "statusCode": 2,
        "statusName": "In-Use",
        "deviceSource": "C3iHub",
        "serialNumber": "1N1322066B",
        "vendor": "Sun Corporation",
        "billOrderNumber": "634/2324",
        "billOrderDate": "2023-03-04T00:00:00.000Z",
        "receivedOn": "2023-05-06T00:00:00.000Z",
        "procurementPeriod": "3 to 4 Months",
        "warranty": true,
        "warrantyEndDate": "2026-04-02T00:00:00.000Z",
        "remarks": "",
        "storeItemNumber": "PC/IHUB/2023-24/169",
        "endOfLife": "2033-04-02T00:00:00.000Z",
        "capEx": 81778,
        "opEx": null,
        "itemName": "HP 600 G9 Mt Desktop",
        "model": "ELITE TOWER 600 G9",
        "oem": "HP",
        "processor": "12TH GEN INTEL(R) CORE (TM) i7-12700 2.10 GHz",
        "commonPlatformEnumeration": "cpe:2.3:h:hp:elite_tower_600_g9:-:*:*:*:*:*:*:*",
        "responsibleForItem": "Shivshankar Mishra ",
        "supportContact": "",
        "createdAt": "2024-07-08T05:02:19.841Z",
        "updatedAt": "2024-07-24T07:33:20.608Z",
        "__v": 0,
        "adUserName": "",
        "agentInstallationDate": "2024-07-09T00:00:00.000Z",
        "agentVersion": "v4.8.0",
        "assetAllocationRequestDate": "2024-07-08T00:00:00.000Z",
        "assetHandoverDate": "2024-07-23T00:00:00.000Z",
        "assetId": "DHEA01182",
        "assetLocation": "R340 HR- Seat- 1",
        "custodianDepartment": "Human Resource",
        "custodianEmail": "sushmita@c3ihub.iitk.ac.in",
        "custodianId": "IHUB182",
        "custodianName": "Sushmita Dubey \t   \t     \t  ",
        "custodianOffice": "Room 340- HR Room",
        "custodianPhone": "7275934302",
        "custodianRole": "Assistant Manager – HR \t",
        "custodianType": "Employee",
        "ipAddress": "172.29.26.183",
        "ipType": "Dynamic",
        "listOfCertificates": "HRMS",
        "macAddress": "e0:73:e7:0a:90:15",
        "operatingSystem": "Microsoft Windows 11 Pro 10.0.22631.3880",
        "whiteListedSoftwares": "",
        "core": "",
        "deviceCategory": "",
        "nicCount": null,
        "ram": "",
        "storage": "",
        "storageCapacity": "",
        "newAssetsSaved": []
      },
      {
        "_id": "668b72dbb2412ed5984c9cdd",
        "inventoryId": 21158,
        "assetType": 21,
        "assetTypeName": "Desktop",
        "statusCode": 2,
        "statusName": "In-Use",
        "deviceSource": "C3iHub",
        "serialNumber": "1N13220667",
        "vendor": "Sun Corporation",
        "billOrderNumber": "634/2324",
        "billOrderDate": "2023-03-04T00:00:00.000Z",
        "receivedOn": "2023-05-06T00:00:00.000Z",
        "procurementPeriod": "3 to 4 Months",
        "warranty": true,
        "warrantyEndDate": "2026-04-02T00:00:00.000Z",
        "remarks": null,
        "storeItemNumber": "PC/IHUB/2023-24/167",
        "endOfLife": "2033-04-02T00:00:00.000Z",
        "capEx": 81778,
        "opEx": null,
        "itemName": "HP 600 G9 Mt Desktop",
        "model": "ELITE TOWER 600 G9",
        "oem": "HP",
        "processor": "12TH GEN INTEL(R) CORE (TM) i7-12700 2.10 GHz",
        "commonPlatformEnumeration": "cpe:2.3:h:hp:elite_tower_600_g9:-:*:*:*:*:*:*:*",
        "responsibleForItem": "Shivshankar Mishra ",
        "supportContact": null,
        "createdAt": "2024-07-08T05:02:19.758Z",
        "updatedAt": "2024-07-22T11:26:42.553Z",
        "__v": 0,
        "adUserName": "anshumans",
        "agentInstallationDate": "2024-07-03T00:00:00.000Z",
        "agentVersion": "v4.8.0",
        "assetAllocationRequestDate": "2024-07-02T00:00:00.000Z",
        "assetHandoverDate": "2024-07-22T11:26:42.553Z",
        "assetId": "DHEA01179",
        "assetLocation": "338- Seat 6",
        "custodianDepartment": "SOC",
        "custodianEmail": "anshumans@c3ihub.iitk.ac.in",
        "custodianId": "IHUB179",
        "custodianName": "Anshuman Singh",
        "custodianOffice": "R338 - Server &amp; Network Admin team",
        "custodianPhone": "6386574554",
        "custodianRole": "SDE",
        "custodianType": "Employee",
        "ipAddress": "192.168.25.14",
        "ipType": "Dynamic",
        "listOfCertificates": "HRMS\r\nGateway",
        "macAddress": "e0:73:e7:0a:91:ad",
        "operatingSystem": "Microsoft Windows 11 Pro 10.0.22631.3810",
        "whiteListedSoftwares": "Oracle VirtualBox , VS Code, Google Chrome, Mozilla Firefox, Thunderbird, Postman, Teams, Office 365",
        "newAssetsSaved": []
      },
      {
        "_id": "668b72dbb2412ed5984c9cd7",
        "inventoryId": 21156,
        "assetType": 21,
        "assetTypeName": "Desktop",
        "statusCode": 2,
        "statusName": "In-Use",
        "deviceSource": "C3iHub",
        "serialNumber": "1N1322066D",
        "vendor": "Sun Corporation",
        "billOrderNumber": "634/2324",
        "billOrderDate": "2023-03-04T00:00:00.000Z",
        "receivedOn": "2023-05-06T00:00:00.000Z",
        "procurementPeriod": "3 to 4 Months",
        "warranty": true,
        "warrantyEndDate": "2026-04-02T00:00:00.000Z",
        "remarks": null,
        "storeItemNumber": "PC/IHUB/2023-24/165",
        "endOfLife": "2033-04-02T00:00:00.000Z",
        "capEx": 81778,
        "opEx": null,
        "itemName": "HP 600 G9 Mt Desktop",
        "model": "ELITE TOWER 600 G9",
        "oem": "HP",
        "processor": "12TH GEN INTEL(R) CORE (TM) i7-12700 2.10 GHz",
        "commonPlatformEnumeration": "cpe:2.3:h:hp:elite_tower_600_g9:-:*:*:*:*:*:*:*",
        "responsibleForItem": "Shivshankar Mishra ",
        "supportContact": null,
        "createdAt": "2024-07-08T05:02:19.677Z",
        "updatedAt": "2024-07-22T11:04:16.934Z",
        "__v": 0,
        "adUserName": "sriram",
        "agentInstallationDate": "2024-07-03T00:00:00.000Z",
        "agentVersion": "v4.8.0",
        "assetAllocationRequestDate": "2024-07-02T00:00:00.000Z",
        "assetHandoverDate": "2024-07-22T11:04:16.934Z",
        "assetId": "DHEA01178",
        "assetLocation": "338- Seat 5",
        "custodianDepartment": "SOC",
        "custodianEmail": "sriram@c3ihub.iitk.ac.in",
        "custodianId": "IHUB178",
        "custodianName": "R Sriramchandher",
        "custodianOffice": "R338 - Server &amp; Network Admin team",
        "custodianPhone": "9003520821",
        "custodianRole": "SDE",
        "custodianType": "Employee",
        "ipAddress": "192.168.25.9",
        "ipType": "Dynamic",
        "listOfCertificates": "HRMS,\r\nGateway",
        "macAddress": "e0:73:e7:0a:91:5c",
        "operatingSystem": "Microsoft Windows 11 Pro 10.0.22631.3880",
        "whiteListedSoftwares": "Oracle VirtualBox , VS Code, Google Chrome, Mozilla Firefox, Thunderbird, Postman, Teams, Office 365",
        "newAssetsSaved": []
      },
      {
        "_id": "668b72dbb2412ed5984c9cda",
        "inventoryId": 21157,
        "assetType": 21,
        "assetTypeName": "Desktop",
        "statusCode": 2,
        "statusName": "In-Use",
        "deviceSource": "C3iHub",
        "serialNumber": "1N13220665",
        "vendor": "Sun Corporation",
        "billOrderNumber": "634/2324",
        "billOrderDate": "2023-03-04T00:00:00.000Z",
        "receivedOn": "2023-05-06T00:00:00.000Z",
        "procurementPeriod": "3 to 4 Months",
        "warranty": true,
        "warrantyEndDate": "2026-04-02T00:00:00.000Z",
        "remarks": null,
        "storeItemNumber": "PC/IHUB/2023-24/166",
        "endOfLife": "2033-04-02T00:00:00.000Z",
        "capEx": 81778,
        "opEx": null,
        "itemName": "HP 600 G9 Mt Desktop",
        "model": "ELITE TOWER 600 G9",
        "oem": "HP",
        "processor": "12TH GEN INTEL(R) CORE (TM) i7-12700 2.10 GHz",
        "commonPlatformEnumeration": "cpe:2.3:h:hp:elite_tower_600_g9:-:*:*:*:*:*:*:*",
        "responsibleForItem": "Shivshankar Mishra ",
        "supportContact": null,
        "createdAt": "2024-07-08T05:02:19.722Z",
        "updatedAt": "2024-07-22T11:20:36.638Z",
        "__v": 0,
        "adUserName": "madhavm",
        "agentInstallationDate": "2024-07-03T00:00:00.000Z",
        "agentVersion": "v4.8.0",
        "assetAllocationRequestDate": "2024-07-02T00:00:00.000Z",
        "assetHandoverDate": "2024-07-22T11:20:36.638Z",
        "assetId": "DHEA01177",
        "assetLocation": "338- Seat 4",
        "custodianDepartment": "SOC",
        "custodianEmail": "madhavm@c3ihub.iitk.ac.in",
        "custodianId": "IHUB177",
        "custodianName": "Madhav Maheshwari",
        "custodianOffice": "R338 - Server &amp; Network Admin team",
        "custodianPhone": "7737366586",
        "custodianRole": "SDE",
        "custodianType": "Employee",
        "ipAddress": "192.168.25.6",
        "ipType": "Dynamic",
        "listOfCertificates": "HRMS,\r\nGateway",
        "macAddress": "e0:73:e7:0a:8a:7c",
        "operatingSystem": "Microsoft Windows 11 Pro 10.0.22631.3880",
        "whiteListedSoftwares": "Oracle VirtualBox , VS Code, Google Chrome, Mozilla Firefox, Thunderbird, Postman, Teams, Office 365",
        "newAssetsSaved": []
      }
    ],
    "pagination": {
      "totalPages": 40,
      "currentPage": 1,
      "totalItems": 393
    }
  }